stm32l0xx_it.c:71:6:NMI_Handler	8	static
stm32l0xx_it.c:84:6:HardFault_Handler	8	static
stm32l0xx_it.c:99:6:SVC_Handler	8	static
stm32l0xx_it.c:112:6:PendSV_Handler	8	static
stm32l0xx_it.c:125:6:SysTick_Handler	8	static
stm32l0xx_it.c:146:6:TIM2_IRQHandler	8	static
stm32l0xx_it.c:160:6:TIM21_IRQHandler	8	static
