stm32l0xx_hal_msp.c:66:6:HAL_MspInit	8	static
stm32l0xx_hal_msp.c:88:6:HAL_TIM_Base_MspInit	16	static
stm32l0xx_hal_msp.c:121:6:HAL_TIM_MspPostInit	40	static
stm32l0xx_hal_msp.c:153:6:HAL_TIM_Base_MspDeInit	16	static
