<?xml version="1.0" encoding="UTF-8"?>
<session version="1.0">
<refactoring comment="Delete resource &apos;MyTutr_PWMbasicsScratch&apos;" deleteContents="true" description="Delete resource &apos;MyTutr_PWMbasicsScratch&apos;" element1="/MyTutr_PWMbasicsScratch" flags="7" id="org.eclipse.ltk.core.refactoring.delete.resources" resources="1" stamp="1628493687880"/>
</session>